[{"id":1,"login":"Bobby","email":"bdracksford0@infoseek.co.jp","password":"LHfIOrd"},
{"id":2,"login":"Deane","email":"dsenner1@hc360.com","password":"2ZLzVDUggd"},
{"id":3,"login":"Hieronymus","email":"hsteabler2@purevolume.com","password":"hJhFwvoI"},
{"id":4,"login":"Kay","email":"kburgh3@homestead.com","password":"6SJQLqB"},
{"id":5,"login":"Sanders","email":"sweal4@alibaba.com","password":"G4fPfNdXwzp"},
{"id":6,"login":"Anna-maria","email":"arabbatts5@hhs.gov","password":"nzoewu"},
{"id":7,"login":"Burk","email":"bspiers6@hostgator.com","password":"zH5GdJYCUyYR"},
{"id":8,"login":"Tallie","email":"tgreenhead7@qq.com","password":"O3C4OaJlQ7"},
{"id":9,"login":"Larry","email":"lmechem8@cbsnews.com","password":"ZAgc0XzWsDts"},
{"id":10,"login":"Marcelo","email":"mcromley9@alexa.com","password":"WzeMLuHCIsXP"},
{"id":11,"login":"Ada","email":"afontenota@ca.gov","password":"kvnCbZNz"},
{"id":12,"login":"Cletus","email":"crennebeckb@ning.com","password":"0pfJCEChUT6"},
{"id":13,"login":"Danya","email":"dtatumc@ucoz.com","password":"AaAFVzvO4"},
{"id":14,"login":"Annaliese","email":"acosseyd@moonfruit.com","password":"rCe0S5C20B"},
{"id":15,"login":"Huntlee","email":"hskyme@washingtonpost.com","password":"7nLzT0coJ"},
{"id":16,"login":"Thebault","email":"tbuessenf@scribd.com","password":"UuT37BK4RwT"},
{"id":17,"login":"Langsdon","email":"lfallisg@wisc.edu","password":"LOIn1aHGIr"},
{"id":18,"login":"Gayleen","email":"gmcreathh@tumblr.com","password":"31hx6VM9Bj4"},
{"id":19,"login":"Dita","email":"dlehenmanni@virginia.edu","password":"Cw9BKSlcth"},
{"id":20,"login":"Burl","email":"bstraffonj@ucsd.edu","password":"GbNXELhvdVu"},
{"id":20,"login":"Pavel","email":"bstraffonj@ucsd.edu","password":"12345"},
{"id":20,"login":"Ivan","email":"bstraffonj@ucsd.edu","password":"12345"}]